0.0
0.0
0.0
0.0
0.0
0.0
0.0
0.0
0.0
0.0
0.0
0.0
0.0
0.0
0.0
0.0
0.0
0.0
0.0
0.0
0.0
0.0
0.0
0.0
0.0
0.0
0.0
0.0
0.0
0.0
0.0
0.0
0.0
0.0
0.0
101.5
105.7
15.0
2.0
2.0
2.1
2.1
20.0
28.0
28.0
3.1
3.5
30.0
30.0
31.0
32.1
32.3
33.8
34.2
34.4
35.6
35.8
35.8
36.4
38.8
39.9
41.0
41.1
42.8
43.7
43.8
44.0
44.2
44.3
45.2
45.7
45.8
46.2
46.3
47.3
48.7
48.8
49.7
49.7
49.8
5.9
51.6
53.0
53.0
53.0
53.0
53.0
53.2
53.3
53.7
53.8
54.0
54.0
54.0
54.0
54.0
54.0
54.0
54.0
54.0
54.0
54.0
54.0
54.0
54.0
54.0
54.0
54.0
54.0
54.1
54.8
55.0
55.0
55.0
55.0
55.6
56.0
56.0
56.0
56.2
56.7
56.7
56.9
57.0
57.0
57.0
57.5
58.0
58.0
58.0
58.0
58.7
58.8
58.8
59.1
59.6
59.8
60.0
60.5
60.9
61.0
61.3
62.0
62.0
62.3
62.9
63.0
63.2
63.3
64.0
64.5
65.0
65.0
65.0
65.0
65.0
65.8
66.3
67.0
67.3
67.8
68.2
68.5
68.6
68.7
69.5
69.8
71.3
71.3
72.7
73.5
73.9
74.8
75.2
75.3
75.3
76.7
77.1
77.8
78.8
79.6
79.6
80.2
80.9
81.8
82.5
84.2
